AirBnB College Project
…
# Grouping by host_id and host_name, then calculating the count of unique ids
apartments_per_owner <- AirBnBData %>%
  group_by(host_id, host_name) %>%
  summarise(number_of_apartments = n_distinct(id)) %>%
  arrange(desc(number_of_apartments))

## `summarise()` has grouped output by 'host_id'. You can override using the
## `.groups` argument.

# Viewing the table
print(apartments_per_owner)

## # A tibble: 44,874 x 3
## # Groups:   host_id [44,874]
##     host_id host_name         number_of_apartments
##       <int> <fct>                            <int>
##  1  2288803 Fabien                             155
##  2  2667370 Parisian Home                      139
##  3 12984381 Olivier                             91
##  4  3972699 Hanane                              80
##  5  3943828 Caroline                            65
##  6 21630783 Pierre                              65
##  7 39922748 Clara                               64
##  8   789620 Charlotte                           60
##  9 11593703 Rudy And Benjamin                   56
## 10  3971743 Diane                               55
## # i 44,864 more rows
…
